[gd_scene load_steps=27 format=2]

[ext_resource path="res://Main/Camera.tscn" type="PackedScene" id=1]
[ext_resource path="res://River/RiverTexture.tres" type="Texture" id=2]
[ext_resource path="res://Main/River.gd" type="Script" id=3]
[ext_resource path="res://Main/Cursor.gd" type="Script" id=4]
[ext_resource path="res://Main/Cursor/Cursor2.png" type="Texture" id=5]
[ext_resource path="res://Main/Cursor/Cursor1.png" type="Texture" id=6]
[ext_resource path="res://Turret/TurretPreview.tscn" type="PackedScene" id=7]
[ext_resource path="res://Main/Cursor/Cursor3.png" type="Texture" id=8]
[ext_resource path="res://HUD/TextBox.tscn" type="PackedScene" id=9]
[ext_resource path="res://Enemy/Slime.tscn" type="PackedScene" id=10]
[ext_resource path="res://Misc/MobSpawner.gd" type="Script" id=11]
[ext_resource path="res://Main/BackgroundTiles.png" type="Texture" id=12]

[sub_resource type="AtlasTexture" id=3]
atlas = ExtResource( 8 )
region = Rect2( 0, 0, 24, 24 )

[sub_resource type="AtlasTexture" id=4]
atlas = ExtResource( 8 )
region = Rect2( 24, 0, 24, 24 )

[sub_resource type="AtlasTexture" id=5]
atlas = ExtResource( 5 )
region = Rect2( 0, 0, 24, 24 )

[sub_resource type="AtlasTexture" id=6]
atlas = ExtResource( 5 )
region = Rect2( 24, 0, 24, 24 )

[sub_resource type="SpriteFrames" id=2]
animations = [ {
"frames": [ SubResource( 3 ), SubResource( 4 ) ],
"loop": true,
"name": "cursor_on",
"speed": 3.0
}, {
"frames": [ SubResource( 5 ), SubResource( 6 ) ],
"loop": true,
"name": "cursor_corner",
"speed": 5.0
}, {
"frames": [ ExtResource( 6 ) ],
"loop": true,
"name": "cursor_off",
"speed": 5.0
} ]

[sub_resource type="CircleShape2D" id=7]
radius = 25.0

[sub_resource type="ConvexPolygonShape2D" id=9]
points = PoolVector2Array( 16, 16, 0, 16, 0, 0, 16, 0 )

[sub_resource type="ConvexPolygonShape2D" id=10]
points = PoolVector2Array( 16, 16, 0, 16, 0, 0, 16, 0 )

[sub_resource type="ConvexPolygonShape2D" id=11]
points = PoolVector2Array( 16, 16, 0, 16, 0, 0, 16, 0 )

[sub_resource type="ConvexPolygonShape2D" id=12]
points = PoolVector2Array( 16, 16, 0, 16, 0, 0, 16, 0 )

[sub_resource type="TileSet" id=1]
0/name = "RiverTexture.tres 0"
0/texture = ExtResource( 2 )
0/tex_offset = Vector2( 0, 0 )
0/modulate = Color( 1, 1, 1, 1 )
0/region = Rect2( 0, 0, 64, 16 )
0/tile_mode = 2
0/autotile/icon_coordinate = Vector2( 0, 0 )
0/autotile/tile_size = Vector2( 16, 16 )
0/autotile/spacing = 0
0/autotile/occluder_map = [  ]
0/autotile/navpoly_map = [  ]
0/autotile/priority_map = [  ]
0/autotile/z_index_map = [  ]
0/occluder_offset = Vector2( 0, 0 )
0/navigation_offset = Vector2( 0, 0 )
0/shape_offset = Vector2( 0, 0 )
0/shape_transform = Transform2D( 1, 0, 0, 1, 0, 0 )
0/shape = SubResource( 9 )
0/shape_one_way = false
0/shape_one_way_margin = 1.0
0/shapes = [ {
"autotile_coord": Vector2( 0, 0 ),
"one_way": false,
"one_way_margin": 1.0,
"shape": SubResource( 9 ),
"shape_transform": Transform2D( 1, 0, 0, 1, 0, 0 )
}, {
"autotile_coord": Vector2( 1, 0 ),
"one_way": false,
"one_way_margin": 1.0,
"shape": SubResource( 10 ),
"shape_transform": Transform2D( 1, 0, 0, 1, 0, 0 )
}, {
"autotile_coord": Vector2( 2, 0 ),
"one_way": false,
"one_way_margin": 1.0,
"shape": SubResource( 11 ),
"shape_transform": Transform2D( 1, 0, 0, 1, 0, 0 )
}, {
"autotile_coord": Vector2( 3, 0 ),
"one_way": false,
"one_way_margin": 1.0,
"shape": SubResource( 12 ),
"shape_transform": Transform2D( 1, 0, 0, 1, 0, 0 )
} ]
0/z_index = 0

[sub_resource type="TileSet" id=14]
0/name = "BackgroundTiles.png 0"
0/texture = ExtResource( 12 )
0/tex_offset = Vector2( 0, 0 )
0/modulate = Color( 1, 1, 1, 1 )
0/region = Rect2( 0, 0, 96, 48 )
0/tile_mode = 2
0/autotile/icon_coordinate = Vector2( 0, 0 )
0/autotile/tile_size = Vector2( 16, 16 )
0/autotile/spacing = 0
0/autotile/occluder_map = [  ]
0/autotile/navpoly_map = [  ]
0/autotile/priority_map = [  ]
0/autotile/z_index_map = [  ]
0/occluder_offset = Vector2( 0, 0 )
0/navigation_offset = Vector2( 0, 0 )
0/shape_offset = Vector2( 0, 0 )
0/shape_transform = Transform2D( 1, 0, 0, 1, 0, 0 )
0/shape_one_way = false
0/shape_one_way_margin = 0.0
0/shapes = [  ]
0/z_index = 0

[sub_resource type="Curve2D" id=13]
bake_interval = 15.0
_data = {
"points": PoolVector2Array( 0, 0, 0, 0, -15, -14, 0, 0, 0, 0, 468, -14, 0, 0, 0, 0, 470, 269, 0, 0, 0, 0, -14, 269, 0, 0, 0, 0, -14, -7 )
}

[sub_resource type="RectangleShape2D" id=8]
extents = Vector2( 232, 134.5 )

[node name="Main" type="Node2D"]

[node name="CursorSystem" type="Node2D" parent="."]
script = ExtResource( 4 )
_tile_map_path = NodePath("../RiverMap")

[node name="River" type="Node2D" parent="CursorSystem"]
script = ExtResource( 3 )
_tile_map_path = NodePath("../../RiverMap")

[node name="Cursor" type="Node2D" parent="CursorSystem"]
z_index = 60
z_as_relative = false

[node name="Sprite" type="AnimatedSprite" parent="CursorSystem/Cursor"]
position = Vector2( 8, 8 )
frames = SubResource( 2 )
animation = "cursor_corner"
playing = true

[node name="Tutorial" parent="CursorSystem/Cursor" instance=ExtResource( 9 )]
visible = false
z_index = 10

[node name="Timer" type="Timer" parent="CursorSystem/Cursor/Tutorial"]
wait_time = 2.2
autostart = true

[node name="Infos" parent="CursorSystem/Cursor" instance=ExtResource( 9 )]
position = Vector2( 9, -14 )

[node name="Absorber" type="Area2D" parent="CursorSystem/Cursor" groups=["cursor"]]
position = Vector2( 8, 8 )
collision_layer = 4
collision_mask = 0
monitoring = false

[node name="CollisionShape2D" type="CollisionShape2D" parent="CursorSystem/Cursor/Absorber"]
shape = SubResource( 7 )

[node name="TurretPreview" parent="CursorSystem" instance=ExtResource( 7 )]

[node name="Message" parent="CursorSystem" instance=ExtResource( 9 )]
position = Vector2( 227, 246 )
z_index = 110
z_as_relative = false

[node name="GameOver" type="Timer" parent="CursorSystem"]
wait_time = 3.0
one_shot = true

[node name="Turrets" type="YSort" parent="."]

[node name="Enemies" type="YSort" parent="."]

[node name="Pellets" type="Node2D" parent="."]

[node name="Bullets" type="Node2D" parent="."]

[node name="RiverMap" type="TileMap" parent="."]
tile_set = SubResource( 1 )
cell_size = Vector2( 16, 16 )
show_collision = true
collision_layer = 8
collision_mask = 0
format = 1

[node name="BackgroundMap" type="TileMap" parent="."]
z_index = -10
z_as_relative = false
tile_set = SubResource( 14 )
cell_size = Vector2( 16, 16 )
collision_layer = 0
collision_mask = 0
format = 1
tile_data = PoolIntArray( -1, 0, 5, -65536, 0, 5, -65535, 0, 5, -65534, 0, 5, -65533, 0, 5, -65532, 0, 5, -65531, 0, 5, -65530, 0, 5, -65529, 0, 5, -65528, 0, 5, -65527, 0, 5, -65526, 0, 5, -65525, 0, 5, -65524, 0, 5, -65523, 0, 5, -65522, 0, 5, -65521, 0, 5, -65520, 0, 5, -65519, 0, 5, -65518, 0, 5, -65517, 0, 5, -65516, 0, 5, -65515, 0, 5, -65514, 0, 5, -65513, 0, 5, -65512, 0, 5, -65511, 0, 5, -65510, 0, 5, -65509, 0, 5, -65508, 0, 5, -65507, 0, 5, 65535, 0, 5, 0, 0, 5, 1, 0, 5, 2, 0, 5, 3, 0, 5, 4, 0, 5, 5, 0, 5, 6, 0, 5, 7, 0, 5, 8, 0, 5, 9, 0, 5, 10, 0, 5, 11, 0, 5, 12, 0, 5, 13, 0, 5, 14, 0, 5, 15, 0, 5, 16, 0, 5, 17, 0, 5, 18, 0, 5, 19, 0, 5, 20, 0, 5, 21, 0, 5, 22, 0, 5, 23, 0, 5, 24, 0, 5, 25, 0, 5, 26, 0, 5, 27, 0, 5, 28, 0, 5, 29, 0, 5, 131071, 0, 5, 65536, 0, 5, 65537, 0, 0, 65538, 0, 1, 65539, 0, 1, 65540, 0, 1, 65541, 0, 1, 65542, 0, 1, 65543, 0, 1, 65544, 0, 1, 65545, 0, 1, 65546, 0, 1, 65547, 0, 1, 65548, 0, 1, 65549, 0, 1, 65550, 0, 1, 65551, 0, 1, 65552, 0, 1, 65553, 0, 1, 65554, 0, 1, 65555, 0, 1, 65556, 0, 1, 65557, 0, 1, 65558, 0, 1, 65559, 0, 1, 65560, 0, 1, 65561, 0, 1, 65562, 0, 2, 65563, 0, 5, 65564, 0, 5, 65565, 0, 5, 196607, 0, 5, 131072, 0, 5, 131073, 0, 65536, 131074, 0, 3, 131075, 0, 131075, 131076, 0, 4, 131077, 0, 3, 131078, 0, 65537, 131079, 0, 3, 131080, 0, 3, 131081, 0, 3, 131082, 0, 3, 131083, 0, 3, 131084, 0, 3, 131085, 0, 3, 131086, 0, 3, 131087, 0, 3, 131088, 0, 3, 131089, 0, 3, 131090, 0, 3, 131091, 0, 3, 131092, 0, 3, 131093, 0, 3, 131094, 0, 3, 131095, 0, 131076, 131096, 0, 4, 131097, 0, 3, 131098, 0, 65538, 131099, 0, 5, 131100, 0, 5, 131101, 0, 5, 262143, 0, 5, 196608, 0, 5, 196609, 0, 65536, 196610, 0, 65537, 196611, 0, 3, 196612, 0, 3, 196613, 0, 3, 196614, 0, 3, 196615, 0, 3, 196616, 0, 3, 196617, 0, 65537, 196618, 0, 3, 196619, 0, 65540, 196620, 0, 65537, 196621, 0, 3, 196622, 0, 3, 196623, 0, 3, 196624, 0, 3, 196625, 0, 3, 196626, 0, 3, 196627, 0, 3, 196628, 0, 65537, 196629, 0, 3, 196630, 0, 65540, 196631, 0, 3, 196632, 0, 65537, 196633, 0, 3, 196634, 0, 65538, 196635, 0, 5, 196636, 0, 5, 196637, 0, 5, 327679, 0, 5, 262144, 0, 5, 262145, 0, 65536, 262146, 0, 3, 262147, 0, 3, 262148, 0, 3, 262149, 0, 65537, 262150, 0, 4, 262151, 0, 3, 262152, 0, 3, 262153, 0, 3, 262154, 0, 3, 262155, 0, 3, 262156, 0, 65540, 262157, 0, 3, 262158, 0, 65537, 262159, 0, 65537, 262160, 0, 4, 262161, 0, 3, 262162, 0, 3, 262163, 0, 3, 262164, 0, 3, 262165, 0, 65537, 262166, 0, 4, 262167, 0, 65537, 262168, 0, 3, 262169, 0, 3, 262170, 0, 65538, 262171, 0, 5, 262172, 0, 5, 262173, 0, 5, 393215, 0, 5, 327680, 0, 5, 327681, 0, 65536, 327682, 0, 65537, 327683, 0, 3, 327684, 0, 3, 327685, 0, 3, 327686, 0, 3, 327687, 0, 3, 327688, 0, 3, 327689, 0, 3, 327690, 0, 3, 327691, 0, 3, 327692, 0, 3, 327693, 0, 3, 327694, 0, 3, 327695, 0, 65540, 327696, 0, 3, 327697, 0, 3, 327698, 0, 3, 327699, 0, 65539, 327700, 0, 3, 327701, 0, 3, 327702, 0, 3, 327703, 0, 65540, 327704, 0, 3, 327705, 0, 65539, 327706, 0, 65538, 327707, 0, 5, 327708, 0, 5, 327709, 0, 5, 458751, 0, 5, 393216, 0, 5, 393217, 0, 65536, 393218, 0, 131075, 393219, 0, 3, 393220, 0, 3, 393221, 0, 3, 393222, 0, 4, 393223, 0, 3, 393224, 0, 3, 393225, 0, 3, 393226, 0, 131076, 393227, 0, 4, 393228, 0, 3, 393229, 0, 3, 393230, 0, 65537, 393231, 0, 3, 393232, 0, 3, 393233, 0, 65537, 393234, 0, 3, 393235, 0, 3, 393236, 0, 3, 393237, 0, 3, 393238, 0, 3, 393239, 0, 3, 393240, 0, 3, 393241, 0, 3, 393242, 0, 65538, 393243, 0, 5, 393244, 0, 5, 393245, 0, 5, 524287, 0, 5, 458752, 0, 5, 458753, 0, 65536, 458754, 0, 3, 458755, 0, 65537, 458756, 0, 65537, 458757, 0, 3, 458758, 0, 3, 458759, 0, 3, 458760, 0, 3, 458761, 0, 65537, 458762, 0, 3, 458763, 0, 3, 458764, 0, 3, 458765, 0, 3, 458766, 0, 3, 458767, 0, 3, 458768, 0, 3, 458769, 0, 131076, 458770, 0, 3, 458771, 0, 3, 458772, 0, 3, 458773, 0, 4, 458774, 0, 3, 458775, 0, 3, 458776, 0, 3, 458777, 0, 3, 458778, 0, 65538, 458779, 0, 5, 458780, 0, 5, 458781, 0, 5, 589823, 0, 5, 524288, 0, 5, 524289, 0, 65536, 524290, 0, 3, 524291, 0, 65540, 524292, 0, 3, 524293, 0, 3, 524294, 0, 3, 524295, 0, 65537, 524296, 0, 3, 524297, 0, 4, 524298, 0, 3, 524299, 0, 3, 524300, 0, 3, 524301, 0, 3, 524302, 0, 65537, 524303, 0, 3, 524304, 0, 3, 524305, 0, 65540, 524306, 0, 3, 524307, 0, 3, 524308, 0, 65537, 524309, 0, 65537, 524310, 0, 3, 524311, 0, 65537, 524312, 0, 3, 524313, 0, 3, 524314, 0, 65538, 524315, 0, 5, 524316, 0, 5, 524317, 0, 5, 655359, 0, 5, 589824, 0, 5, 589825, 0, 65536, 589826, 0, 3, 589827, 0, 3, 589828, 0, 3, 589829, 0, 3, 589830, 0, 3, 589831, 0, 3, 589832, 0, 3, 589833, 0, 3, 589834, 0, 3, 589835, 0, 3, 589836, 0, 3, 589837, 0, 3, 589838, 0, 4, 589839, 0, 131076, 589840, 0, 3, 589841, 0, 3, 589842, 0, 3, 589843, 0, 3, 589844, 0, 3, 589845, 0, 3, 589846, 0, 3, 589847, 0, 3, 589848, 0, 3, 589849, 0, 3, 589850, 0, 65538, 589851, 0, 5, 589852, 0, 5, 589853, 0, 5, 720895, 0, 5, 655360, 0, 5, 655361, 0, 65536, 655362, 0, 3, 655363, 0, 65537, 655364, 0, 4, 655365, 0, 3, 655366, 0, 3, 655367, 0, 65539, 655368, 0, 3, 655369, 0, 3, 655370, 0, 3, 655371, 0, 3, 655372, 0, 4, 655373, 0, 3, 655374, 0, 3, 655375, 0, 3, 655376, 0, 3, 655377, 0, 3, 655378, 0, 65537, 655379, 0, 3, 655380, 0, 3, 655381, 0, 3, 655382, 0, 3, 655383, 0, 3, 655384, 0, 3, 655385, 0, 65537, 655386, 0, 65538, 655387, 0, 5, 655388, 0, 5, 655389, 0, 5, 786431, 0, 5, 720896, 0, 5, 720897, 0, 65536, 720898, 0, 3, 720899, 0, 3, 720900, 0, 3, 720901, 0, 3, 720902, 0, 65537, 720903, 0, 3, 720904, 0, 3, 720905, 0, 65537, 720906, 0, 3, 720907, 0, 3, 720908, 0, 3, 720909, 0, 3, 720910, 0, 3, 720911, 0, 65540, 720912, 0, 3, 720913, 0, 3, 720914, 0, 3, 720915, 0, 3, 720916, 0, 65540, 720917, 0, 3, 720918, 0, 4, 720919, 0, 3, 720920, 0, 3, 720921, 0, 3, 720922, 0, 65538, 720923, 0, 5, 720924, 0, 5, 720925, 0, 5, 851967, 0, 5, 786432, 0, 5, 786433, 0, 65536, 786434, 0, 3, 786435, 0, 131076, 786436, 0, 3, 786437, 0, 3, 786438, 0, 3, 786439, 0, 3, 786440, 0, 3, 786441, 0, 3, 786442, 0, 3, 786443, 0, 3, 786444, 0, 131075, 786445, 0, 65537, 786446, 0, 3, 786447, 0, 3, 786448, 0, 65537, 786449, 0, 3, 786450, 0, 3, 786451, 0, 3, 786452, 0, 3, 786453, 0, 3, 786454, 0, 3, 786455, 0, 131075, 786456, 0, 3, 786457, 0, 3, 786458, 0, 65538, 786459, 0, 5, 786460, 0, 5, 786461, 0, 5, 917503, 0, 5, 851968, 0, 5, 851969, 0, 65536, 851970, 0, 3, 851971, 0, 3, 851972, 0, 3, 851973, 0, 65537, 851974, 0, 3, 851975, 0, 3, 851976, 0, 4, 851977, 0, 3, 851978, 0, 3, 851979, 0, 3, 851980, 0, 3, 851981, 0, 3, 851982, 0, 3, 851983, 0, 3, 851984, 0, 3, 851985, 0, 3, 851986, 0, 3, 851987, 0, 3, 851988, 0, 65537, 851989, 0, 3, 851990, 0, 3, 851991, 0, 3, 851992, 0, 65537, 851993, 0, 3, 851994, 0, 65538, 851995, 0, 5, 851996, 0, 5, 851997, 0, 5, 983039, 0, 5, 917504, 0, 5, 917505, 0, 131072, 917506, 0, 131073, 917507, 0, 131073, 917508, 0, 131073, 917509, 0, 131073, 917510, 0, 131073, 917511, 0, 131073, 917512, 0, 131073, 917513, 0, 131073, 917514, 0, 131073, 917515, 0, 131073, 917516, 0, 131073, 917517, 0, 131073, 917518, 0, 131073, 917519, 0, 131073, 917520, 0, 131073, 917521, 0, 131073, 917522, 0, 131073, 917523, 0, 131073, 917524, 0, 131073, 917525, 0, 131073, 917526, 0, 131073, 917527, 0, 131073, 917528, 0, 131073, 917529, 0, 131073, 917530, 0, 131074, 917531, 0, 5, 917532, 0, 5, 917533, 0, 5, 1048575, 0, 5, 983040, 0, 5, 983041, 0, 5, 983042, 0, 5, 983043, 0, 5, 983044, 0, 5, 983045, 0, 5, 983046, 0, 5, 983047, 0, 5, 983048, 0, 5, 983049, 0, 5, 983050, 0, 5, 983051, 0, 5, 983052, 0, 5, 983053, 0, 5, 983054, 0, 5, 983055, 0, 5, 983056, 0, 5, 983057, 0, 5, 983058, 0, 5, 983059, 0, 5, 983060, 0, 5, 983061, 0, 5, 983062, 0, 5, 983063, 0, 5, 983064, 0, 5, 983065, 0, 5, 983066, 0, 5, 983067, 0, 5, 983068, 0, 5, 983069, 0, 5, 1114111, 0, 5, 1048576, 0, 5, 1048577, 0, 5, 1048578, 0, 5, 1048579, 0, 5, 1048580, 0, 5, 1048581, 0, 5, 1048582, 0, 5, 1048583, 0, 5, 1048584, 0, 5, 1048585, 0, 5, 1048586, 0, 5, 1048587, 0, 5, 1048588, 0, 5, 1048589, 0, 5, 1048590, 0, 5, 1048591, 0, 5, 1048592, 0, 5, 1048593, 0, 5, 1048594, 0, 5, 1048595, 0, 5, 1048596, 0, 5, 1048597, 0, 5, 1048598, 0, 5, 1048599, 0, 5, 1048600, 0, 5, 1048601, 0, 5, 1048602, 0, 5, 1048603, 0, 5, 1048604, 0, 5, 1048605, 0, 5 )

[node name="MobSpawner" type="Node2D" parent="."]
script = ExtResource( 11 )
_tile_map_path = NodePath("../RiverMap")
_enemy_path = ExtResource( 10 )

[node name="Wave" type="Timer" parent="MobSpawner"]

[node name="Spawn" type="Timer" parent="MobSpawner"]

[node name="Start" type="Timer" parent="MobSpawner"]
wait_time = 0.1
one_shot = true
autostart = true

[node name="Path" type="Path2D" parent="MobSpawner"]
position = Vector2( 0.0927839, 9.53674e-07 )
scale = Vector2( 1.00619, 1 )
curve = SubResource( 13 )

[node name="Pointer" type="PathFollow2D" parent="MobSpawner/Path"]
position = Vector2( -15, -14 )
rotation = -3.1395
rotate = false

[node name="Ray" type="RayCast2D" parent="MobSpawner/Path/Pointer"]
rotation = 3.14159
enabled = true
cast_to = Vector2( 540, 0 )
collision_mask = 8

[node name="GameField" type="Area2D" parent="." groups=["field"]]
collision_layer = 256
collision_mask = 0
monitoring = false

[node name="CollisionShape2D" type="CollisionShape2D" parent="GameField"]
position = Vector2( 227, 127.5 )
shape = SubResource( 8 )

[node name="Camera" parent="." instance=ExtResource( 1 )]

[connection signal="timeout" from="CursorSystem/Cursor/Tutorial/Timer" to="CursorSystem" method="_on_Tutorial_timeout"]
[connection signal="cursor_rotated" from="CursorSystem/TurretPreview" to="CursorSystem" method="_on_TurretPreview_cursor_rotated"]
[connection signal="turret_spawned" from="CursorSystem/TurretPreview" to="CursorSystem" method="_on_turret_spawned"]
[connection signal="timeout" from="CursorSystem/GameOver" to="CursorSystem" method="_on_GameOver_timeout"]
[connection signal="timeout" from="MobSpawner/Wave" to="MobSpawner" method="_on_Wave_timeout"]
[connection signal="timeout" from="MobSpawner/Spawn" to="MobSpawner" method="_on_Spawn_timeout"]
[connection signal="timeout" from="MobSpawner/Start" to="MobSpawner" method="_on_Start_timeout"]
