[gd_scene load_steps=5 format=2]

[ext_resource path="res://Bullet/BulletBig.png" type="Texture" id=1]
[ext_resource path="res://Bullet/Bullet.gd" type="Script" id=2]
[ext_resource path="res://Effect/LightCircle.png" type="Texture" id=3]

[sub_resource type="CapsuleShape2D" id=1]
radius = 4.5
height = 7.0

[node name="BigBullet" type="Area2D"]
z_index = 35
collision_layer = 0
collision_mask = 257
input_pickable = false
monitorable = false
script = ExtResource( 2 )
speed = 220.0

[node name="Light" type="Sprite" parent="."]
modulate = Color( 0.34902, 0.454902, 0.635294, 1 )
position = Vector2( -10, 0 )
scale = Vector2( 0.75, 0.395833 )
z_index = -11
z_as_relative = false
texture = ExtResource( 3 )

[node name="Sprite" type="Sprite" parent="."]
position = Vector2( -5, 0 )
texture = ExtResource( 1 )

[node name="CollisionShape2D" type="CollisionShape2D" parent="."]
position = Vector2( -5, -0.5 )
rotation = 1.5708
shape = SubResource( 1 )

[connection signal="area_entered" from="." to="." method="_on_Bullet_area_entered"]
[connection signal="area_exited" from="." to="." method="_on_Bullet_area_exited"]
