[gd_scene load_steps=4 format=2]

[ext_resource path="res://Effect/SlimeBodyPart.png" type="Texture" id=2]

[sub_resource type="Curve" id=1]
max_value = 2.0
bake_resolution = 30
_data = [ Vector2( 0, 1.26577 ), 0.0, 5.87413, 0, 0, Vector2( 0.17, 1.86577 ), 0.6993, 0.6993, 0, 0, Vector2( 1, 0.0375 ), -1.73554, 0.0, 0, 0 ]

[sub_resource type="Animation" id=2]
resource_name = "effect"
length = 2.0
tracks/0/type = "value"
tracks/0/path = NodePath("CPUParticles2D:emitting")
tracks/0/interp = 1
tracks/0/loop_wrap = true
tracks/0/imported = false
tracks/0/enabled = true
tracks/0/keys = {
"times": PoolRealArray( 0 ),
"transitions": PoolRealArray( 1 ),
"update": 1,
"values": [ true ]
}
tracks/1/type = "method"
tracks/1/path = NodePath(".")
tracks/1/interp = 1
tracks/1/loop_wrap = true
tracks/1/imported = false
tracks/1/enabled = true
tracks/1/keys = {
"times": PoolRealArray( 1.5 ),
"transitions": PoolRealArray( 1 ),
"values": [ {
"args": [  ],
"method": "queue_free"
} ]
}

[node name="SlimeDeathEmpty" type="Node2D"]
z_index = 67
z_as_relative = false

[node name="CPUParticles2D" type="CPUParticles2D" parent="."]
emitting = false
amount = 20
lifetime = 0.6
one_shot = true
preprocess = 0.22
explosiveness = 0.7
texture = ExtResource( 2 )
spread = 180.0
gravity = Vector2( 0, 0 )
initial_velocity = 70.0
initial_velocity_random = 0.5
damping = 100.0
scale_amount_curve = SubResource( 1 )

[node name="AnimationPlayer" type="AnimationPlayer" parent="."]
autoplay = "effect"
anims/effect = SubResource( 2 )
