[gd_resource type="SpriteFrames" load_steps=4 format=2]

[ext_resource path="res://Turret/Sprites/TurretBaseMedium.png" type="Texture" id=1]
[ext_resource path="res://Turret/Sprites/TurretBaseBig.png" type="Texture" id=2]
[ext_resource path="res://Turret/Sprites/TurretBaseSmall.png" type="Texture" id=3]

[resource]
animations = [ {
"frames": [ ExtResource( 3 ) ],
"loop": false,
"name": "BaseSmall",
"speed": 5.0
}, {
"frames": [ ExtResource( 1 ) ],
"loop": false,
"name": "BaseMedium",
"speed": 5.0
}, {
"frames": [ ExtResource( 2 ) ],
"loop": false,
"name": "BaseBig",
"speed": 5.0
} ]
