[gd_resource type="SpriteFrames" load_steps=44 format=2]

[ext_resource path="res://River/RiverCorners.png" type="Texture" id=1]

[sub_resource type="AtlasTexture" id=1]
atlas = ExtResource( 1 )
region = Rect2( 0, 16, 16, 16 )

[sub_resource type="AtlasTexture" id=2]
atlas = ExtResource( 1 )
region = Rect2( 16, 16, 16, 16 )

[sub_resource type="AtlasTexture" id=3]
atlas = ExtResource( 1 )
region = Rect2( 32, 16, 16, 16 )

[sub_resource type="AtlasTexture" id=4]
atlas = ExtResource( 1 )
region = Rect2( 48, 16, 16, 16 )

[sub_resource type="AtlasTexture" id=5]
atlas = ExtResource( 1 )
region = Rect2( 64, 16, 16, 16 )

[sub_resource type="AtlasTexture" id=6]
atlas = ExtResource( 1 )
region = Rect2( 80, 16, 16, 16 )

[sub_resource type="AtlasTexture" id=7]
atlas = ExtResource( 1 )
region = Rect2( 0, 0, 16, 16 )

[sub_resource type="AtlasTexture" id=8]
atlas = ExtResource( 1 )
region = Rect2( 16, 0, 16, 16 )

[sub_resource type="AtlasTexture" id=9]
atlas = ExtResource( 1 )
region = Rect2( 32, 0, 16, 16 )

[sub_resource type="AtlasTexture" id=10]
atlas = ExtResource( 1 )
region = Rect2( 48, 0, 16, 16 )

[sub_resource type="AtlasTexture" id=11]
atlas = ExtResource( 1 )
region = Rect2( 64, 0, 16, 16 )

[sub_resource type="AtlasTexture" id=12]
atlas = ExtResource( 1 )
region = Rect2( 80, 0, 16, 16 )

[sub_resource type="AtlasTexture" id=13]
atlas = ExtResource( 1 )
region = Rect2( 0, 32, 16, 16 )

[sub_resource type="AtlasTexture" id=14]
atlas = ExtResource( 1 )
region = Rect2( 16, 32, 16, 16 )

[sub_resource type="AtlasTexture" id=15]
atlas = ExtResource( 1 )
region = Rect2( 32, 32, 16, 16 )

[sub_resource type="AtlasTexture" id=16]
atlas = ExtResource( 1 )
region = Rect2( 48, 32, 16, 16 )

[sub_resource type="AtlasTexture" id=17]
atlas = ExtResource( 1 )
region = Rect2( 64, 32, 16, 16 )

[sub_resource type="AtlasTexture" id=18]
atlas = ExtResource( 1 )
region = Rect2( 80, 32, 16, 16 )

[sub_resource type="AtlasTexture" id=19]
atlas = ExtResource( 1 )
region = Rect2( 0, 80, 16, 16 )

[sub_resource type="AtlasTexture" id=20]
atlas = ExtResource( 1 )
region = Rect2( 16, 80, 16, 16 )

[sub_resource type="AtlasTexture" id=21]
atlas = ExtResource( 1 )
region = Rect2( 32, 80, 16, 16 )

[sub_resource type="AtlasTexture" id=22]
atlas = ExtResource( 1 )
region = Rect2( 48, 80, 16, 16 )

[sub_resource type="AtlasTexture" id=23]
atlas = ExtResource( 1 )
region = Rect2( 64, 80, 16, 16 )

[sub_resource type="AtlasTexture" id=24]
atlas = ExtResource( 1 )
region = Rect2( 80, 80, 16, 16 )

[sub_resource type="AtlasTexture" id=25]
atlas = ExtResource( 1 )
region = Rect2( 0, 64, 16, 16 )

[sub_resource type="AtlasTexture" id=26]
atlas = ExtResource( 1 )
region = Rect2( 16, 64, 16, 16 )

[sub_resource type="AtlasTexture" id=27]
atlas = ExtResource( 1 )
region = Rect2( 32, 64, 16, 16 )

[sub_resource type="AtlasTexture" id=28]
atlas = ExtResource( 1 )
region = Rect2( 48, 64, 16, 16 )

[sub_resource type="AtlasTexture" id=29]
atlas = ExtResource( 1 )
region = Rect2( 64, 64, 16, 16 )

[sub_resource type="AtlasTexture" id=30]
atlas = ExtResource( 1 )
region = Rect2( 80, 64, 16, 16 )

[sub_resource type="AtlasTexture" id=31]
atlas = ExtResource( 1 )
region = Rect2( 0, 48, 16, 16 )

[sub_resource type="AtlasTexture" id=32]
atlas = ExtResource( 1 )
region = Rect2( 16, 48, 16, 16 )

[sub_resource type="AtlasTexture" id=33]
atlas = ExtResource( 1 )
region = Rect2( 32, 48, 16, 16 )

[sub_resource type="AtlasTexture" id=34]
atlas = ExtResource( 1 )
region = Rect2( 48, 48, 16, 16 )

[sub_resource type="AtlasTexture" id=35]
atlas = ExtResource( 1 )
region = Rect2( 64, 48, 16, 16 )

[sub_resource type="AtlasTexture" id=36]
atlas = ExtResource( 1 )
region = Rect2( 80, 48, 16, 16 )

[sub_resource type="AtlasTexture" id=37]
atlas = ExtResource( 1 )
region = Rect2( 0, 96, 16, 16 )

[sub_resource type="AtlasTexture" id=38]
atlas = ExtResource( 1 )
region = Rect2( 16, 96, 16, 16 )

[sub_resource type="AtlasTexture" id=39]
atlas = ExtResource( 1 )
region = Rect2( 32, 96, 16, 16 )

[sub_resource type="AtlasTexture" id=40]
atlas = ExtResource( 1 )
region = Rect2( 48, 96, 16, 16 )

[sub_resource type="AtlasTexture" id=41]
atlas = ExtResource( 1 )
region = Rect2( 64, 96, 16, 16 )

[sub_resource type="AtlasTexture" id=42]
atlas = ExtResource( 1 )
region = Rect2( 80, 96, 16, 16 )

[resource]
animations = [ {
"frames": [ SubResource( 1 ), SubResource( 2 ), SubResource( 3 ), SubResource( 4 ), SubResource( 5 ), SubResource( 6 ) ],
"loop": true,
"name": "River01",
"speed": 10.0
}, {
"frames": [ SubResource( 7 ), SubResource( 8 ), SubResource( 9 ), SubResource( 10 ), SubResource( 11 ), SubResource( 12 ) ],
"loop": true,
"name": "River00",
"speed": 10.0
}, {
"frames": [ SubResource( 13 ), SubResource( 14 ), SubResource( 15 ), SubResource( 16 ), SubResource( 17 ), SubResource( 18 ) ],
"loop": true,
"name": "River10",
"speed": 10.0
}, {
"frames": [ SubResource( 19 ), SubResource( 20 ), SubResource( 21 ), SubResource( 22 ), SubResource( 23 ), SubResource( 24 ) ],
"loop": true,
"name": "River21",
"speed": 5.0
}, {
"frames": [ SubResource( 25 ), SubResource( 26 ), SubResource( 27 ), SubResource( 28 ), SubResource( 29 ), SubResource( 30 ) ],
"loop": true,
"name": "River12",
"speed": 5.0
}, {
"frames": [ SubResource( 31 ), SubResource( 32 ), SubResource( 33 ), SubResource( 34 ), SubResource( 35 ), SubResource( 36 ) ],
"loop": true,
"name": "River11",
"speed": 10.0
}, {
"frames": [ SubResource( 37 ), SubResource( 38 ), SubResource( 39 ), SubResource( 40 ), SubResource( 41 ), SubResource( 42 ) ],
"loop": true,
"name": "River22",
"speed": 5.0
} ]
